<?xml version="1.0" encoding="utf-8"?>
<!-- Generator: Adobe Illustrator 21.0.0, SVG Export Plug-In . SVG Version: 6.00 Build 0)  -->
<svg version="1.1" xmlns="http://www.w3.org/2000/svg" xmlns:xlink="http://www.w3.org/1999/xlink" x="0px" y="0px"
	 viewBox="0 0 51 51.7" style="enable-background:new 0 0 51 51.7;" xml:space="preserve">
<style type="text/css">
	.st0{display:none;}
	.st1{display:inline;opacity:0.85;fill:#E6E6E6;stroke:#B3B3B3;stroke-miterlimit:10;}
	.st2{display:inline;fill:none;stroke:#CCCCCC;stroke-miterlimit:10;}
	.st3{display:inline;}
	.st4{fill:#FFFFFF;}
	.st5{display:none;fill:none;stroke:#999999;stroke-width:2;stroke-linecap:round;stroke-miterlimit:10;}
	.st6{display:none;fill:#E6E6E6;stroke:#FFB300;stroke-width:2;stroke-miterlimit:10;}
	.st7{display:none;fill:none;stroke:#FFB300;stroke-width:2;stroke-linecap:round;stroke-miterlimit:10;}
	.st8{display:inline;fill:#FFFFFF;}
	.st9{display:inline;fill:#FFB300;}
	.st10{fill:none;stroke:#4D4D4D;stroke-width:2;stroke-linecap:square;stroke-linejoin:bevel;stroke-miterlimit:10;}
	.st11{fill:#FFFFFF;stroke:#B3B3B3;stroke-miterlimit:10;}
	.st12{fill:#4D4D4D;stroke:#4D4D4D;stroke-width:0.25;stroke-miterlimit:10;}
	.st13{fill:#4D4D4D;}
	.st14{fill:none;stroke:#666666;stroke-width:2;stroke-miterlimit:10;}
</style>
<g id="Слой_1">
	<g id="Слой_6" class="st0">
	</g>
</g>
<g id="Слой_2" class="st0">
</g>
<g id="Слой_3">
	<g>
		<path class="st12" d="M13,24.5h7c0.1,0,0.3,0.1,0.3,0.3V26c0,0.1-0.1,0.3-0.3,0.3h-6.8c-0.1,0-0.3-0.1-0.3-0.3V24.5L13,24.5z"/>
		<path class="st12" d="M13.2,29.2H20c0.1,0,0.3,0.1,0.3,0.3v1.2c0,0.1-0.1,0.3-0.3,0.3h-6.8c-0.1,0-0.3-0.1-0.3-0.3v-1.2
			C13,29.3,13.1,29.2,13.2,29.2z"/>
		<path class="st12" d="M13.2,34.1H20c0.1,0,0.3,0.1,0.3,0.3v1.2c0,0.1-0.1,0.3-0.3,0.3h-6.8c-0.1,0-0.3-0.1-0.3-0.3v-1.2
			C13,34.2,13.1,34.1,13.2,34.1z"/>
		<path class="st12" d="M13.2,38.9H20c0.1,0,0.3,0.1,0.3,0.3v1.2c0,0.1-0.1,0.3-0.3,0.3h-6.8c-0.1,0-0.3-0.1-0.3-0.3v-1.2
			C13,39,13.1,38.9,13.2,38.9z"/>
		<path class="st12" d="M25.6,15.2H37c0.1,0,0.3,0.1,0.3,0.3v1.2c0,0.1-0.1,0.3-0.3,0.3H25.8c-0.1,0-0.3-0.1-0.3-0.3V15.2L25.6,15.2
			z"/>
		<path class="st12" d="M25.6,20.8H37c0.1,0,0.3,0.1,0.3,0.3v1.2c0,0.1-0.1,0.3-0.3,0.3H25.8c-0.1,0-0.3-0.1-0.3-0.3V20.8L25.6,20.8
			z"/>
		<path class="st12" d="M25.6,26.5H37c0.1,0,0.3,0.1,0.3,0.3v1.2c0,0.1-0.1,0.3-0.3,0.3H25.8c-0.1,0-0.3-0.1-0.3-0.3V26.5L25.6,26.5
			z"/>
		<path class="st12" d="M40.8,44V9.6c0-0.4-0.4-0.8-0.8-0.8h-5.5c-0.4,0-0.8-0.4-0.8-0.8V6.2c0-0.4-0.4-0.8-0.8-0.8H22.8
			c-0.4,0-0.8,0.4-0.8,0.8v2.6v1.7v4.7c0,0.4-0.4,0.8-0.8,0.8h-8.7c-0.4,0-0.8,0.4-0.8,0.8v1.8c0,0.4-0.4,0.8-0.8,0.8h-0.6
			c-0.4,0-0.8,0.4-0.8,0.8v22.9c0,0.4-0.4,0.8-0.8,0.8H2.8c-0.3,0-0.5,0.2-0.5,0.5v0.6c0,0.3,0.2,0.5,0.5,0.5h6.7H22h1.7h3.7H35h5.8
			h6.7c0.3,0,0.5-0.2,0.5-0.5c0-0.2,0-0.5,0-0.6c0-0.3-0.2-0.5-0.5-0.5H40.8L40.8,44z M24.3,7.1h7.2c0.3,0,0.5,0.2,0.5,0.5v0.6
			c0,0.3-0.2,0.5-0.5,0.5h-7.2c-0.3,0-0.5-0.2-0.5-0.5V7.7C23.7,7.4,24,7.1,24.3,7.1z M14,17.8h7.2c0.3,0,0.5,0.2,0.5,0.5V19
			c0,0.3-0.2,0.5-0.5,0.5H14c-0.3,0-0.5-0.2-0.5-0.5v-0.6C13.5,18,13.7,17.8,14,17.8z M12,44c-0.4,0-0.8-0.4-0.8-0.8V21.2h0.5h9.5
			c0.4,0,0.8,0.4,0.8,0.8v21.1c0,0.4-0.4,0.8-0.8,0.8H12z M29.1,43.2v-3.5c0-0.4,0.4-0.8,0.8-0.8h2.5c0.4,0,0.8,0.4,0.8,0.8v3.5
			c0,0.4-0.4,0.8-0.8,0.8h-2.5C29.5,44,29.1,43.6,29.1,43.2z M34.9,44v-6c0-0.4-0.4-0.8-0.8-0.8h-6c-0.4,0-0.8,0.4-0.8,0.8v5.2
			c0,0.4-0.4,0.8-0.8,0.8h-2.1c-0.4,0-0.8-0.4-0.8-0.8V19.5v-8.1c0-0.4,0.4-0.8,0.8-0.8h9.2h4.6c0.4,0,0.8,0.4,0.8,0.8v31.8
			c0,0.4-0.4,0.8-0.8,0.8H34.9L34.9,44z"/>
	</g>
</g>
<g id="Слой_5">
</g>
<g id="Слой_4">
</g>
</svg>
